…
  
### Optional filter:   
Genes with presence at least in *n* SRA libraries    


```r
df_filtered %>% 
  group_by(Reference) %>% 
  summarize(Total = n()) %>%
  arrange(Total)
```

```
## # A tibble: 24 x 2
##    Reference    Total
##    <fct>        <int>
##  1 LOC101514738     1
##  2 LOC101489666     4
##  3 LOC101491204     4
##  4 LOC101492112     4
##  5 LOC101492136     4
##  6 LOC101492451     4
##  7 LOC101492916     4
##  8 LOC101493974     4
##  9 LOC101496441     4
## 10 LOC101498188     4
## # ... with 14 more rows
```
Filter by genes present in all 4 libraries. 


```r
# total number of occurrences for each gene
mydf <- df_filtered %>% 
  filter(Reference != "LOC101514738" )

mydf
```

```
## # A tibble: 92 x 3
##    Query      Reference    Count
##    <chr>      <fct>        <int>
##  1 SRR5927129 LOC101489666  3671
##  2 SRR5927129 LOC101491204 10345
##  3 SRR5927129 LOC101492112  3407
##  4 SRR5927129 LOC101492136  2189
##  5 SRR5927129 LOC101492451   249
##  6 SRR5927129 LOC101492916   514
##  7 SRR5927129 LOC101493974   823
##  8 SRR5927129 LOC101496441   686
##  9 SRR5927129 LOC101498188 10933
## 10 SRR5927129 LOC101498659  3634
## # ... with 82 more rows
```
…
### Normalized counts


```r
mydf_norm <- mydf %>% 
  mutate(norm_Counts = Count*mean(Runsize)/Runsize) %>%
  select(Query, Reference, norm_Counts)

mydf_norm
```

```
## # A tibble: 92 x 3
##    Query      Reference    norm_Counts
##    <chr>      <fct>              <dbl>
##  1 SRR5927129 LOC101489666       3497.
##  2 SRR5927129 LOC101491204       9854.
##  3 SRR5927129 LOC101492112       3245.
##  4 SRR5927129 LOC101492136       2085.
##  5 SRR5927129 LOC101492451        237.
##  6 SRR5927129 LOC101492916        490.
##  7 SRR5927129 LOC101493974        784.
##  8 SRR5927129 LOC101496441        653.
##  9 SRR5927129 LOC101498188      10414.
## 10 SRR5927129 LOC101498659       3461.
## # ... with 82 more rows
```
